<?xml version="1.0" encoding="UTF-8"?>
<testsuite name="rspec" tests="5" skipped="0" failures="0" errors="0" time="2.464498" timestamp="2022-08-29T16:24:23-03:00" hostname="LAPTOP-2P0CTSOF">
<properties>
<property name="seed" value="33323"/>
</properties>
<testcase classname="spec.get_task_spec" name="GET Tasks Validate status code" file="./spec/get_task_spec.rb" time="0.009294"></testcase>
<testcase classname="spec.get_task_spec" name="GET Tasks Validate body not null" file="./spec/get_task_spec.rb" time="0.009986"></testcase>
<testcase classname="spec.post_session_spec" name="POST Login User Validate status code" file="./spec/post_session_spec.rb" time="0.000241"></testcase>
<testcase classname="spec.post_session_spec" name="POST Login User Validate User email" file="./spec/post_session_spec.rb" time="0.000404"></testcase>
<testcase classname="spec.post_session_spec" name="POST Login User Validate generate token" file="./spec/post_session_spec.rb" time="0.000255"></testcase>
</testsuite>
